Name:                Kit
ID:                  13
Importance:          1
POV:                 True
Full Summary:        Voca en fin de parcours, qui va endosser le manteau de Vesta après que Coda décide d'arrêter.
                     Traine au Naked Brocoli.
Color:               #bdb88c
